<?xml version="1.0" encoding="UTF-8"?>
<testsuite xmlns:xsi="http://www.w3.org/2001/XMLSchema-instance" xsi:noNamespaceSchemaLocation="https://maven.apache.org/surefire/maven-surefire-plugin/xsd/surefire-test-report.xsd" name="F3Tests" time="0" tests="2" errors="0" skipped="0" failures="0">
  <properties>
    <property name="sun.desktop" value="windows"/>
    <property name="awt.toolkit" value="sun.awt.windows.WToolkit"/>
    <property name="java.specification.version" value="9"/>
    <property name="file.encoding.pkg" value="sun.io"/>
    <property name="sun.cpu.isalist" value="amd64"/>
    <property name="sun.jnu.encoding" value="Cp1252"/>
    <property name="java.class.path" value="E:\VVSS\vvss\Lab1\Library2\target\test-classes;E:\VVSS\vvss\Lab1\Library2\target\classes;C:\Users\Munteanu Ciprian\.m2\repository\junit\junit\4.12\junit-4.12.jar;C:\Users\Munteanu Ciprian\.m2\repository\org\hamcrest\hamcrest-core\1.3\hamcrest-core-1.3.jar;"/>
    <property name="java.vm.vendor" value="Oracle Corporation"/>
    <property name="sun.arch.data.model" value="64"/>
    <property name="user.variant" value=""/>
    <property name="java.vendor.url" value="http://java.oracle.com/"/>
    <property name="user.timezone" value="Europe/Athens"/>
    <property name="java.vm.specification.version" value="9"/>
    <property name="os.name" value="Windows 10"/>
    <property name="sun.java.launcher" value="SUN_STANDARD"/>
    <property name="user.country" value="US"/>
    <property name="sun.boot.library.path" value="C:\Program Files\Java\jdk-9\bin"/>
    <property name="sun.java.command" value="C:\Users\MUNTEA~1\AppData\Local\Temp\surefire5699209939032815986\surefirebooter8495194066194329404.jar C:\Users\Munteanu Ciprian\AppData\Local\Temp\surefire5699209939032815986 2019-05-06T23-45-28_142-jvmRun1 surefire10011676860926242656tmp surefire_017342324211698878356tmp"/>
    <property name="jdk.debug" value="release"/>
    <property name="surefire.test.class.path" value="E:\VVSS\vvss\Lab1\Library2\target\test-classes;E:\VVSS\vvss\Lab1\Library2\target\classes;C:\Users\Munteanu Ciprian\.m2\repository\junit\junit\4.12\junit-4.12.jar;C:\Users\Munteanu Ciprian\.m2\repository\org\hamcrest\hamcrest-core\1.3\hamcrest-core-1.3.jar;"/>
    <property name="sun.cpu.endian" value="little"/>
    <property name="user.home" value="C:\Users\Munteanu Ciprian"/>
    <property name="user.language" value="en"/>
    <property name="java.specification.vendor" value="Oracle Corporation"/>
    <property name="java.home" value="C:\Program Files\Java\jdk-9"/>
    <property name="file.separator" value="\"/>
    <property name="basedir" value="E:\VVSS\vvss\Lab1\Library2"/>
    <property name="java.vm.compressedOopsMode" value="32-bit"/>
    <property name="line.separator" value="&#10;"/>
    <property name="java.vm.specification.vendor" value="Oracle Corporation"/>
    <property name="java.specification.name" value="Java Platform API Specification"/>
    <property name="java.awt.graphicsenv" value="sun.awt.Win32GraphicsEnvironment"/>
    <property name="surefire.real.class.path" value="C:\Users\MUNTEA~1\AppData\Local\Temp\surefire5699209939032815986\surefirebooter8495194066194329404.jar"/>
    <property name="user.script" value=""/>
    <property name="sun.management.compiler" value="HotSpot 64-Bit Tiered Compilers"/>
    <property name="java.runtime.version" value="9+181"/>
    <property name="user.name" value="Munteanu Ciprian"/>
    <property name="path.separator" value=";"/>
    <property name="os.version" value="10.0"/>
    <property name="java.runtime.name" value="Java(TM) SE Runtime Environment"/>
    <property name="file.encoding" value="Cp1252"/>
    <property name="java.vm.name" value="Java HotSpot(TM) 64-Bit Server VM"/>
    <property name="localRepository" value="C:\Users\Munteanu Ciprian\.m2\repository"/>
    <property name="java.vendor.url.bug" value="http://bugreport.java.com/bugreport/"/>
    <property name="java.io.tmpdir" value="C:\Users\MUNTEA~1\AppData\Local\Temp\"/>
    <property name="idea.version" value="2018.3.5"/>
    <property name="java.version" value="9"/>
    <property name="user.dir" value="E:\VVSS\vvss\Lab1\Library2"/>
    <property name="os.arch" value="amd64"/>
    <property name="java.vm.specification.name" value="Java Virtual Machine Specification"/>
    <property name="java.awt.printerjob" value="sun.awt.windows.WPrinterJob"/>
    <property name="sun.os.patch.level" value=""/>
    <property name="java.library.path" value="C:\Program Files\Java\jdk-9\bin;C:\WINDOWS\Sun\Java\bin;C:\WINDOWS\system32;C:\WINDOWS;E:\Apps\ImageMagick-7.0.8-Q16;C:\Program Files\NVIDIA GPU Computing Toolkit\CUDA\v10.0\bin;C:\Program Files\NVIDIA GPU Computing Toolkit\CUDA\v10.0\libnvvp;C:\Python27\;C:\Python27\Scripts;C:\ProgramData\Boxstarter;C:\Program Files (x86)\PHP\v7.0;C:\ProgramData\Oracle\Java\javapath;C:\Program Files (x86)\Intel\iCLS Client\;C:\Program Files\Intel\iCLS Client\;C:\Windows\system32;C:\Windows;C:\Windows\System32\Wbem;C:\Windows\System32\WindowsPowerShell\v1.0\;C:\Program Files (x86)\Intel\Intel(R) Management Engine Components\DAL;C:\Program Files\Intel\Intel(R) Management Engine Components\DAL;C:\Program Files (x86)\Intel\Intel(R) Management Engine Components\IPT;C:\Program Files\Intel\Intel(R) Management Engine Components\IPT;C:\Program Files (x86)\NVIDIA Corporation\PhysX\Common;C:\WINDOWS\system32;C:\WINDOWS;C:\WINDOWS\System32\Wbem;C:\WINDOWS\System32\WindowsPowerShell\v1.0\;C:\Program Files (x86)\GtkSharp\2.12\bin;C:\Program Files\Perforce;C:\Program Files\Git\cmd;C:\Program Files\Microsoft\Web Platform Installer\;C:\Users\Munteanu Ciprian\AppData\Local\Programs\Python\Python35-32\Scripts\;C:\Users\Munteanu Ciprian\AppData\Local\Programs\Python\Python35-32\;C:\Users\Munteanu Ciprian\AppData\Local\Microsoft\WindowsApps;C:\Android;C:\WINDOWS\system32;C:\WINDOWS;C:\WINDOWS\System32\Wbem;C:\WINDOWS\System32\WindowsPowerShell\v1.0\;C:\WINDOWS\System32\OpenSSH\;C:\Program Files\nodejs\;C:\ProgramData\chocolatey\bin;C:\Program Files\Java\jdk1.8.0_191\bin;C:\Program Files\Git LFS;E:\Apps\Matlab\runtime\win64;E:\Apps\Matlab\bin;E:\Apps\Matlab\polyspace\bin;C:\Program Files\dotnet\;C:\Users\Munteanu Ciprian\AppData\Local\Programs\Python\Python37-32\Scripts\;C:\Users\Munteanu Ciprian\AppData\Local\Programs\Python\Python37-32\;C:\Users\Munteanu Ciprian\AppData\Local\Programs\Python\Python35-32\Scripts\;C:\Users\Munteanu Ciprian\AppData\Local\Programs\Python\Python35-32\;C:\Users\Munteanu Ciprian\AppData\Local\Microsoft\WindowsApps;C:\Program Files\Perforce\Server;C:\Users\Munteanu Ciprian\AppData\Local\GitHubDesktop\bin;C:\Users\Munteanu Ciprian\AppData\Local\Microsoft\WindowsApps;C:\Users\Munteanu Ciprian\AppData\Local\atom\bin;E:\MPP\protoc-3.5.1-win32\bin\protoc.exe;D:\Java stuff\apache-maven-3.5.4-bin\apache-maven-3.5.4\bin;C:\Users\Munteanu Ciprian\AppData\Roaming\npm;;."/>
    <property name="java.vm.info" value="mixed mode"/>
    <property name="java.vendor" value="Oracle Corporation"/>
    <property name="java.vm.version" value="9+181"/>
    <property name="sun.io.unicode.encoding" value="UnicodeLittle"/>
    <property name="java.class.version" value="53.0"/>
  </properties>
  <testcase name="validTest" classname="F3Tests" time="0"/>
  <testcase name="invalidTest" classname="F3Tests" time="0"/>
</testsuite>